# Blender 3.2.1 MTL File: 'tree-04.blend'
# www.blender.org

newmtl Leaves
Ns 250.000000
Ka 1.000000 1.000000 1.000000
Kd 0.005812 0.500000 0.011126
Ks 0.500000 0.500000 0.500000
Ke 0.000000 0.000000 0.000000
Ni 1.450000
d 1.000000
illum 2
map_Kd E:/Users/tomi/Personal Files/Blender/textures/grass.jpg

newmtl Trunk
Ns 250.000000
Ka 1.000000 1.000000 1.000000
Kd 0.228572 0.057659 0.000000
Ks 0.500000 0.500000 0.500000
Ke 0.000000 0.000000 0.000000
Ni 1.450000
d 1.000000
illum 2
